{
    "name": "Beef and Buffalo Meat",
    "total_value": 320028342.0,
    "children": [
        {
            "name": "Argentina",
            "value": 15544002.0,
            "value_percentage": 4.8570704403424365
        },
        {
            "name": "Australia",
            "value": 10698756.0,
            "value_percentage": 3.343065158897708
        },
        {
            "name": "Belarus",
            "value": 1294700.0,
            "value_percentage": 0.4045579188108283
        },
        {
            "name": "Brazil",
            "value": 43713000.0,
            "value_percentage": 13.659102730345051
        },
        {
            "name": "Canada",
            "value": 6880100.0,
            "value_percentage": 2.1498408412839884
        },
        {
            "name": "China, mainland",
            "value": 29627300.0,
            "value_percentage": 9.25771130608176
        },
        {
            "name": "Colombia",
            "value": 4110305.0,
            "value_percentage": 1.2843565586450465
        },
        {
            "name": "EU27",
            "value": 36697180.0,
            "value_percentage": 11.4668531451505
        },
        {
            "name": "Egypt",
            "value": 3672102.0,
            "value_percentage": 1.1474302485371748
        },
        {
            "name": "Ethiopia",
            "value": 1803260.0,
            "value_percentage": 0.5634688442687992
        },
        {
            "name": "India",
            "value": 11923460.0,
            "value_percentage": 3.7257512648676596
        },
        {
            "name": "Indonesia",
            "value": 2137075.0,
            "value_percentage": 0.6677767933441345
        },
        {
            "name": "Iran (Islamic Republic of)",
            "value": 1852385.0,
            "value_percentage": 0.5788190472205115
        },
        {
            "name": "Japan",
            "value": 2533843.0,
            "value_percentage": 0.7917558126773659
        },
        {
            "name": "Kazakhstan",
            "value": 1830500.0,
            "value_percentage": 0.5719805903940846
        },
        {
            "name": "Kenya",
            "value": 2079400.0,
            "value_percentage": 0.6497549520160936
        },
        {
            "name": "Mexico",
            "value": 8016605.0,
            "value_percentage": 2.5049672006862442
        },
        {
            "name": "New Zealand",
            "value": 3276468.0,
            "value_percentage": 1.0238055728201723
        },
        {
            "name": "Nigeria",
            "value": 1544711.0,
            "value_percentage": 0.4826794371855978
        },
        {
            "name": "Others",
            "value": 31455455.0,
            "value_percentage": 9.828959148874382
        },
        {
            "name": "Pakistan",
            "value": 6015000.0,
            "value_percentage": 1.8795210331714933
        },
        {
            "name": "Paraguay",
            "value": 1322008.0,
            "value_percentage": 0.4130909130541944
        },
        {
            "name": "Philippines",
            "value": 1334858.0,
            "value_percentage": 0.41710618242680514
        },
        {
            "name": "Russian Federation",
            "value": 8952516.0,
            "value_percentage": 2.79741348658426
        },
        {
            "name": "South Africa",
            "value": 3888000.0,
            "value_percentage": 1.2148923984988804
        },
        {
            "name": "Sudan (former)",
            "value": 1720000.0,
            "value_percentage": 0.5374523985128792
        },
        {
            "name": "Turkey",
            "value": 1838591.0,
            "value_percentage": 0.574508803973368
        },
        {
            "name": "Ukraine",
            "value": 2773000.0,
            "value_percentage": 0.8664857564396593
        },
        {
            "name": "United Kingdom of Great Britain and Northern Ireland",
            "value": 4072281.0,
            "value_percentage": 1.2724751109700152
        },
        {
            "name": "United States of America",
            "value": 58311592.0,
            "value_percentage": 18.220758710176987
        },
        {
            "name": "Uruguay",
            "value": 2736349.0,
            "value_percentage": 0.8550333332664642
        },
        {
            "name": "Uzbekistan",
            "value": 2700290.0,
            "value_percentage": 0.8437658937095015
        },
        {
            "name": "Venezuela (Bolivarian Republic of)",
            "value": 2280446.0,
            "value_percentage": 0.7125762630111054
        },
        {
            "name": "Viet Nam",
            "value": 1392804.0,
            "value_percentage": 0.43521270375484433
        }
    ]
}