reporter_grouped_2,value,total_value,value_percentage
Argentina,15544002.0,320028342.0,4.8570704403424365
Australia,10698756.0,320028342.0,3.343065158897708
Belarus,1294700.0,320028342.0,0.4045579188108283
Brazil,43713000.0,320028342.0,13.659102730345051
Canada,6880100.0,320028342.0,2.1498408412839884
"China, mainland",29627300.0,320028342.0,9.25771130608176
Colombia,4110305.0,320028342.0,1.2843565586450465
EU27,36697180.0,320028342.0,11.4668531451505
Egypt,3672102.0,320028342.0,1.1474302485371748
Ethiopia,1803260.0,320028342.0,0.5634688442687992
India,11923460.0,320028342.0,3.7257512648676596
Indonesia,2137075.0,320028342.0,0.6677767933441345
Iran (Islamic Republic of),1852385.0,320028342.0,0.5788190472205115
Japan,2533843.0,320028342.0,0.7917558126773659
Kazakhstan,1830500.0,320028342.0,0.5719805903940846
Kenya,2079400.0,320028342.0,0.6497549520160936
Mexico,8016605.0,320028342.0,2.5049672006862442
New Zealand,3276468.0,320028342.0,1.0238055728201723
Nigeria,1544711.0,320028342.0,0.4826794371855978
Others,31455455.0,320028342.0,9.828959148874382
Pakistan,6015000.0,320028342.0,1.8795210331714933
Paraguay,1322008.0,320028342.0,0.4130909130541944
Philippines,1334858.0,320028342.0,0.41710618242680514
Russian Federation,8952516.0,320028342.0,2.79741348658426
South Africa,3888000.0,320028342.0,1.2148923984988804
Sudan (former),1720000.0,320028342.0,0.5374523985128792
Turkey,1838591.0,320028342.0,0.574508803973368
Ukraine,2773000.0,320028342.0,0.8664857564396593
United Kingdom of Great Britain and Northern Ireland,4072281.0,320028342.0,1.2724751109700152
United States of America,58311592.0,320028342.0,18.220758710176987
Uruguay,2736349.0,320028342.0,0.8550333332664642
Uzbekistan,2700290.0,320028342.0,0.8437658937095015
Venezuela (Bolivarian Republic of),2280446.0,320028342.0,0.7125762630111054
Viet Nam,1392804.0,320028342.0,0.43521270375484433
