reporter_grouped_2,value,total_value,value_percentage
Argentina,3135908.0,72603095.0,4.31924837364027
Australia,2351793.0,72603095.0,3.2392462056886147
Belarus,328100.0,72603095.0,0.45190910938438644
Brazil,10200000.0,72603095.0,14.048987856509424
Canada,1388625.0,72603095.0,1.9126250747299411
Chad,456896.0,72603095.0,0.6293065054595812
"China, mainland",6589822.0,72603095.0,9.076502868093984
Colombia,776680.0,72603095.0,1.0697615576856607
EU27,7008267.0,72603095.0,9.652848821389776
Egypt,746834.0,72603095.0,1.0286531173361135
Ethiopia,391684.0,72603095.0,0.5394866430969644
India,2521736.0,72603095.0,3.473317494247318
Indonesia,514393.0,72603095.0,0.7085000990660246
Iran (Islamic Republic of),369562.0,72603095.0,0.5090168676693466
Japan,470907.0,72603095.0,0.6486045808377728
Kazakhstan,501249.0,72603095.0,0.6903961876556364
Kenya,462125.0,72603095.0,0.6365086777636684
Mexico,2027634.0,72603095.0,2.7927652395534928
Myanmar,489584.0,72603095.0,0.6743293794844422
New Zealand,683923.0,72603095.0,0.9420025413517151
Nigeria,329616.0,72603095.0,0.45399717463835393
Others,7173018.0,72603095.0,9.879768899659167
Pakistan,2221000.0,72603095.0,3.059098238167395
Paraguay,481693.0,72603095.0,0.6634606968201562
Philippines,309756.0,72603095.0,0.4266429688706797
Russian Federation,1625163.0,72603095.0,2.2384211031223944
South Africa,1033310.0,72603095.0,1.4232313374519365
Sudan,388300.0,72603095.0,0.5348256847728048
Turkey,1075552.0,72603095.0,1.4814134301023942
Ukraine,369500.0,72603095.0,0.5089314718608071
United Kingdom of Great Britain and Northern Ireland,914000.0,72603095.0,1.2588995000832954
United Republic of Tanzania,479071.0,72603095.0,0.6598492805299829
United States of America,12348749.0,72603095.0,17.00857105334146
Uruguay,580320.0,72603095.0,0.799304767930348
Uzbekistan,938274.0,72603095.0,1.2923333364782865
Venezuela (Bolivarian Republic of),470284.0,72603095.0,0.6477464906971252
Viet Nam,449767.0,72603095.0,0.6194873648292817
