reporter_grouped_2,value,total_value,value_percentage
Brazil,3295022.0,56614949.0,5.820056466005118
Cameroon,3159114.0,56614949.0,5.5799997276337745
Côte d'Ivoire,18685843.0,56614949.0,33.005139684926675
Dominican Republic,756991.0,56614949.0,1.337086782503328
Ecuador,2228265.0,56614949.0,3.935824440997024
Ghana,8597821.0,56614949.0,15.186485463406493
Indonesia,8407470.0,56614949.0,14.850265077515129
Nigeria,5749903.0,56614949.0,10.15615681292939
Others,5074208.0,56614949.0,8.962664613545797
Peru,660312.0,56614949.0,1.1663209305372684
