reporter_grouped_2,value,total_value,value_percentage
Brazil,1823403.0,11120498.0,16.39677467681753
Colombia,853700.0,11120498.0,7.676814473596416
Côte d'Ivoire,953972.0,11120498.0,8.578500711029308
El Salvador,160028.0,11120498.0,1.4390362733755269
Ethiopia,758523.0,11120498.0,6.820944529642467
Guatemala,308217.0,11120498.0,2.7716114871833977
Honduras,420957.0,11120498.0,3.7854150056948885
India,416741.0,11120498.0,3.7475030344864053
Indonesia,1258032.0,11120498.0,11.312730778783468
Kenya,116200.0,11120498.0,1.0449172330231973
Madagascar,112491.0,11120498.0,1.0115644101550127
Mexico,629300.0,11120498.0,5.6589192318545445
Nicaragua,180416.0,11120498.0,1.6223733865156038
Others,1110750.0,11120498.0,9.988311674531122
Peru,359508.0,11120498.0,3.2328408314088093
Philippines,112024.0,11120498.0,1.0073649579362363
Timor-Leste,123077.0,11120498.0,1.106757988715973
Uganda,469364.0,11120498.0,4.22071025955852
United Republic of Tanzania,170524.0,11120498.0,1.533420535663061
Venezuela (Bolivarian Republic of),160634.0,11120498.0,1.4444856696165944
Viet Nam,622637.0,11120498.0,5.599002850411916
