{
    "name": "Coffee, green",
    "total_value": 51765047.0,
    "children": [
        {
            "name": "Brazil",
            "value": 10649670.0,
            "value_percentage": 20.57309056437252
        },
        {
            "name": "Cameroon",
            "value": 708455.0,
            "value_percentage": 1.3685972312552908
        },
        {
            "name": "Colombia",
            "value": 3735066.0,
            "value_percentage": 7.215420861107303
        },
        {
            "name": "Côte d'Ivoire",
            "value": 2650383.0,
            "value_percentage": 5.120024328385136
        },
        {
            "name": "Dominican Republic",
            "value": 550970.0,
            "value_percentage": 1.0643668497007257
        },
        {
            "name": "Ecuador",
            "value": 555538.0,
            "value_percentage": 1.0731913370039055
        },
        {
            "name": "El Salvador",
            "value": 725962.0,
            "value_percentage": 1.4024173492974903
        },
        {
            "name": "Ethiopia",
            "value": 2476540.0,
            "value_percentage": 4.784193473252328
        },
        {
            "name": "Guatemala",
            "value": 1258501.0,
            "value_percentage": 2.4311790927186836
        },
        {
            "name": "Honduras",
            "value": 1517023.0,
            "value_percentage": 2.9305933016925496
        },
        {
            "name": "India",
            "value": 1811479.0,
            "value_percentage": 3.499425007766341
        },
        {
            "name": "Indonesia",
            "value": 6303311.0,
            "value_percentage": 12.176770553304047
        },
        {
            "name": "Kenya",
            "value": 655195.0,
            "value_percentage": 1.2657092728999164
        },
        {
            "name": "Madagascar",
            "value": 546507.0,
            "value_percentage": 1.0557452019699702
        },
        {
            "name": "Mexico",
            "value": 3590782.0,
            "value_percentage": 6.936692243320092
        },
        {
            "name": "Nicaragua",
            "value": 581399.0,
            "value_percentage": 1.1231497577892666
        },
        {
            "name": "Others",
            "value": 4830162.0,
            "value_percentage": 9.330933283997597
        },
        {
            "name": "Peru",
            "value": 1829505.0,
            "value_percentage": 3.5342477328379514
        },
        {
            "name": "Philippines",
            "value": 600141.0,
            "value_percentage": 1.1593556555642652
        },
        {
            "name": "Uganda",
            "value": 1613859.0,
            "value_percentage": 3.1176616144094296
        },
        {
            "name": "United Republic of Tanzania",
            "value": 946166.0,
            "value_percentage": 1.8278086369746753
        },
        {
            "name": "Venezuela (Bolivarian Republic of)",
            "value": 911487.0,
            "value_percentage": 1.7608155557165823
        },
        {
            "name": "Viet Nam",
            "value": 2716946.0,
            "value_percentage": 5.248611094663934
        }
    ]
}