{
    "name": "Oil palm fruit",
    "total_value": 1795980934.0,
    "children": [
        {
            "name": "Indonesia",
            "value": 1030920894.0,
            "value_percentage": 57.401550009995816
        },
        {
            "name": "Malaysia",
            "value": 480210158.0,
            "value_percentage": 26.738043200184663
        },
        {
            "name": "Nigeria",
            "value": 43700000.0,
            "value_percentage": 2.433210685743282
        },
        {
            "name": "Others",
            "value": 176211192.0,
            "value_percentage": 9.811417741921307
        },
        {
            "name": "Thailand",
            "value": 64938690.0,
            "value_percentage": 3.615778362154929
        }
    ]
}