reporter_grouped_2,value,total_value,value_percentage
Argentina,90662797.0,522316634.0,17.35782303268557
Brazil,121928360.0,522316634.0,23.34376354554314
"China, mainland",39555640.0,522316634.0,7.573115123115148
India,52025320.0,522316634.0,9.96049457616929
Others,50657751.0,522316634.0,9.69866699669381
Paraguay,14046526.0,522316634.0,2.689274108011655
United States of America,153440240.0,522316634.0,29.37686261778138
