product_2,total_value,value,value_percentage
"Beans, dry",81282586.0,2610585.0,3.2117395969660714
"Coffee, green",81282586.0,1823403.0,2.243288617810462
Maize,81282586.0,17518054.0,21.55203821886277
Others,81282586.0,7932712.0,9.7594237466805
"Rice, paddy",81282586.0,1710049.0,2.1038319327094244
Seed cotton,81282586.0,1627163.0,2.0018592912385933
Soybeans,81282586.0,35881447.0,44.14407656764267
Sugar cane,81282586.0,10081170.0,12.402619670589713
Wheat,81282586.0,2098003.0,2.581122357499797
