{
    "name": "Cameroon",
    "total_value": 4568345.8,
    "children": [
        {
            "name": "Bananas",
            "value": 80142.2,
            "value_percentage": 1.754293643883088
        },
        {
            "name": "Beans, dry",
            "value": 210480.4,
            "value_percentage": 4.607365755893523
        },
        {
            "name": "Cassava",
            "value": 238580.2,
            "value_percentage": 5.222463676020323
        },
        {
            "name": "Cocoa, beans",
            "value": 494000.0,
            "value_percentage": 10.813542179753556
        },
        {
            "name": "Coffee, green",
            "value": 172600.0,
            "value_percentage": 3.7781728344645016
        },
        {
            "name": "Cow peas, dry",
            "value": 106636.2,
            "value_percentage": 2.3342409849972388
        },
        {
            "name": "Cucumbers and gherkins",
            "value": 113055.6,
            "value_percentage": 2.474760119954142
        },
        {
            "name": "Groundnuts, with shell",
            "value": 284942.8,
            "value_percentage": 6.237329932423242
        },
        {
            "name": "Kola nuts",
            "value": 95208.4,
            "value_percentage": 2.084089168556373
        },
        {
            "name": "Maize",
            "value": 583427.6,
            "value_percentage": 12.771091015045313
        },
        {
            "name": "Melonseed",
            "value": 103827.4,
            "value_percentage": 2.272757022903126
        },
        {
            "name": "Oil palm fruit",
            "value": 70011.8,
            "value_percentage": 1.5325416040090487
        },
        {
            "name": "Others",
            "value": 442485.2,
            "value_percentage": 9.685895494163336
        },
        {
            "name": "Plantains and others",
            "value": 234744.8,
            "value_percentage": 5.138507684772899
        },
        {
            "name": "Pumpkins, squash and gourds",
            "value": 114644.4,
            "value_percentage": 2.5095385730213327
        },
        {
            "name": "Rice, paddy",
            "value": 55103.2,
            "value_percentage": 1.2061959057477654
        },
        {
            "name": "Seed cotton",
            "value": 175894.2,
            "value_percentage": 3.8502820867894902
        },
        {
            "name": "Sorghum",
            "value": 572347.2,
            "value_percentage": 12.52854370174867
        },
        {
            "name": "Sugar cane",
            "value": 138800.0,
            "value_percentage": 3.0382988958497847
        },
        {
            "name": "Taro (cocoyam)",
            "value": 199460.0,
            "value_percentage": 4.366131828286729
        },
        {
            "name": "Vegetables, fresh nes",
            "value": 81954.2,
            "value_percentage": 1.7939578917165158
        }
    ]
}