product_2,total_value,value,value_percentage
"Cashew nuts, with shell",47357765.0,496331.0,1.0480456584046989
Cassava,47357765.0,640526.0,1.3525258212671143
Cloves,47357765.0,569416.0,1.2023709311450825
"Cocoa, beans",47357765.0,1600648.0,3.3799061252151574
Coconuts,47357765.0,2800000.0,5.912441180448444
"Coffee, green",47357765.0,1258032.0,2.6564429296863987
Maize,47357765.0,5644775.0,11.919428630130666
Oil palm fruit,47357765.0,14677560.0,30.992932204465305
Others,47357765.0,4689108.0,9.901455442417943
"Rice, paddy",47357765.0,10677887.0,22.54727814963396
"Rubber, natural",47357765.0,3683482.0,7.77798952294307
Soybeans,47357765.0,620000.0,1.3091834042421555
