{
    "name": "Indonesia",
    "total_value": 44837579.00000001,
    "children": [
        {
            "name": "Cashew nuts, with shell",
            "value": 513147.8,
            "value_percentage": 1.1444592046327922
        },
        {
            "name": "Cassava",
            "value": 849302.6,
            "value_percentage": 1.894175865293708
        },
        {
            "name": "Cloves",
            "value": 542967.8,
            "value_percentage": 1.210965917673655
        },
        {
            "name": "Cocoa, beans",
            "value": 1681494.0,
            "value_percentage": 3.7501890991928883
        },
        {
            "name": "Coconuts",
            "value": 2921000.0,
            "value_percentage": 6.514624707993264
        },
        {
            "name": "Coffee, green",
            "value": 1236087.2,
            "value_percentage": 2.7568107546573817
        },
        {
            "name": "Maize",
            "value": 4656456.8,
            "value_percentage": 10.38516553268855
        },
        {
            "name": "Oil palm fruit",
            "value": 12159420.2,
            "value_percentage": 27.118815224167204
        },
        {
            "name": "Others",
            "value": 4218335.4,
            "value_percentage": 9.408035612270679
        },
        {
            "name": "Rice, paddy",
            "value": 11400786.8,
            "value_percentage": 25.42685634297962
        },
        {
            "name": "Rubber, natural",
            "value": 3639017.6,
            "value_percentage": 8.115999304958011
        },
        {
            "name": "Soybeans",
            "value": 577232.0,
            "value_percentage": 1.287384405835114
        },
        {
            "name": "Sugar cane",
            "value": 442330.8,
            "value_percentage": 0.986518027657113
        }
    ]
}